pfg005T
pfg022T
pfg023T
pfg030T
pfg031T
pfg032T
pfg034T
pfg035T
pfg036T
pfg038T
pfg039T
pfg043T
pfg050T
pfg052T
pfg053T
pfg054T
pfg058T
pfg059T
pfg060T
pfg062T
pfg064T
pfg065T
pfg069T
pfg072T
pfg073T
pfg076T
pfg081T
pfg082T
pfg088T
pfg089T
pfg092T
pfg094T
pfg097T
pfg099T
pfg100T
pfg102T
pfg104T
pfg105T
pfg106T
pfg107T
pfg108T
pfg115T
pfg116T
pfg118T
pfg119T
pfg120T
pfg121T
pfg123T
pfg124T
pfg125T
pfg130T
pfg132T
pfg135T
pfg136T
pfg138T
pfg142T
pfg144T
pfg145T
pfg146T
pfg151T
pfg156T
pfg157T
pfg160T
pfg164T
pfg166T
pfg167T
pfg173T
pfg180T
pfg182T
pfg205T
pfg213T
pfg217T
pfg220T
pfg222T
pfg228T
pfg258T
pfg272T
pfg277T
pfg282T
pfg311T
pfg316T
pfg317T
pfg344T
pfg373T
pfg375T
pfg378T
pfg398T
pfg413T
pfg416T
pfg424T
