LU-A08-43
LUAD-2GUGK
LUAD-5V8LT
LUAD-AEIUF
LUAD-D02326
LUAD-E00934
LUAD-E01014
LUAD-E01278
LUAD-E01317
LUAD-FH5PJ
LUAD-QY22Z
LUAD-S00488
LUAD-S01302
LUAD-S01331
LUAD-S01341
LUAD-S01345
LUAD-S01346
LUAD-S01356
LUAD-S01381
LUAD-S01404
LUAD-S01405
LUAD-S01467
LUAD-S01478
LUAD-U6SJ7
