leading,lagging,leadingPlusLagging
16098687,16098687,32197374
8317598,8317598,16635196
1660877,1660877,3321754
12791338,12791338,25582676
13297259,13297259,26594518
9296259,9296259,18592518
1370753,1370753,2741506
13140145,13140145,26280290
10916367,10916367,21832734
7654412,7654412,15308824
1099231,1099231,2198462
10413642,10413642,20827284
15759216,15759216,31518432
11834447,11834447,23668894
1274291,1274291,2548582
18214645,18214645,36429290
16098687,16098687,32197374
8317598,8317598,16635196
1660877,1660877,3321754
12791338,12791338,25582676
13297259,13297259,26594518
9296259,9296259,18592518
1370753,1370753,2741506
13140145,13140145,26280290
10916367,10916367,21832734
7654412,7654412,15308824
1099231,1099231,2198462
10413642,10413642,20827284
15759216,15759216,31518432
11834447,11834447,23668894
1274291,1274291,2548582
18214645,18214645,36429290
16098687,16098687,32197374
8317598,8317598,16635196
1660877,1660877,3321754
12791338,12791338,25582676
13297259,13297259,26594518
9296259,9296259,18592518
1370753,1370753,2741506
13140145,13140145,26280290
10916367,10916367,21832734
7654412,7654412,15308824
1099231,1099231,2198462
10413642,10413642,20827284
15759216,15759216,31518432
11834447,11834447,23668894
1274291,1274291,2548582
18214645,18214645,36429290
17530965,17530965,35061930
10632874,10632874,21265748
15180956,15180956,30361912
21326268,21326268,42652536
10524306,10524306,21048612
12310402,12310402,24620804
14927948,14927948,29855896
16789739,16789739,33579478
8996280,8996280,17992560
7358166,7358166,14716332
10815574,10815574,21631148
11690177,11690177,23380354
17885716,17885716,35771432
16776859,16776859,33553718
15140630,15140630,30281260
30453821,30453821,60907642
17530965,17530965,35061930
10632874,10632874,21265748
15180956,15180956,30361912
21326268,21326268,42652536
10524306,10524306,21048612
12310402,12310402,24620804
14927948,14927948,29855896
16789739,16789739,33579478
8996280,8996280,17992560
7358166,7358166,14716332
10815574,10815574,21631148
11690177,11690177,23380354
17885716,17885716,35771432
16776859,16776859,33553718
15140630,15140630,30281260
30453821,30453821,60907642
17530965,17530965,35061930
10632874,10632874,21265748
15180956,15180956,30361912
21326268,21326268,42652536
10524306,10524306,21048612
12310402,12310402,24620804
14927948,14927948,29855896
16789739,16789739,33579478
8996280,8996280,17992560
7358166,7358166,14716332
10815574,10815574,21631148
11690177,11690177,23380354
17885716,17885716,35771432
16776859,16776859,33553718
15140630,15140630,30281260
30453821,30453821,60907642
